Report on Body mass index(BMI)
…
   term                   estimate std_error statistic p_value lower_ci upper_ci
   <chr>                     <dbl>     <dbl>     <dbl>   <dbl>    <dbl>    <dbl>
 1 intercept               -87.5      82.5      -1.06    0.289 -249.      74.3  
 2 Age                       0.041     0.003    14.0     0        0.035    0.046
 3 Sex: Male                 0.041     0.092     0.443   0.658   -0.139    0.221
 4 Education: Higher gra…    0.564     0.142     3.98    0        0.287    0.842
 5 Education: HNC/D or e…    1.06      0.154     6.87    0        0.758    1.36 
 6 Education: No qualifi…    1.18      0.146     8.09    0        0.894    1.47 
 7 Education: Other scho…    0.702     0.218     3.23    0.001    0.276    1.13 
 8 Education: Standard g…    0.92      0.134     6.86    0        0.657    1.18 
 9 Veg: Yes                 -0.11      0.113    -0.974   0.33    -0.331    0.111
10 Fruit: Yes                0.161     0.104     1.55    0.121   -0.042    0.364
11 Year                      0.056     0.041     1.37    0.172   -0.024    0.136

# A tibble: 192 × 7
   term                   estimate std_error statistic p_value lower_ci upper_ci
   <chr>                     <dbl>     <dbl>     <dbl>   <dbl>    <dbl>    <dbl>
 1 intercept               -3448.     2977.     -1.16    0.247  -9285.     2388.
 2 Age                        94.1      64.1     1.47    0.142    -31.6     220.
 3 Sex: Male                3240.     3974.      0.815   0.415  -4549.    11029.
 4 Education: Higher gra…   1493.     3990.      0.374   0.708  -6329.     9315.
 5 Education: HNC/D or e…   2260.     4189.      0.539   0.59   -5951.    10471.
 6 Education: No qualifi…   8129.     3894.      2.09    0.037    496.    15761.
 7 Education: Other scho…   5723.     8295.      0.69    0.49  -10536.    21982.
 8 Education: Standard g…    714.     3774.      0.189   0.85   -6683.     8111.
 9 Veg: Yes                 1167.     3375.      0.346   0.729  -5448.     7782.
10 Fruit: Yes               3200.     3746.      0.854   0.393  -4143.    10544.
# ℹ 182 more rows
…
